<?xml version="1.0" encoding="utf-8"?>
<!-- Generator: Adobe Illustrator 16.0.0, SVG Export Plug-In . SVG Version: 6.00 Build 0)  -->
<!DOCTYPE svg PUBLIC "-//W3C//DTD SVG 1.1//EN" "http://www.w3.org/Graphics/SVG/1.1/DTD/svg11.dtd">
<svg version="1.1" id="_x32_6e08365-e7f3-4f87-b2fd-e29738693ebb"
	 xmlns="http://www.w3.org/2000/svg" xmlns:xlink="http://www.w3.org/1999/xlink" x="0px" y="0px" width="999px" height="797.25px"
	 viewBox="0 0 999 797.25" enable-background="new 0 0 999 797.25" xml:space="preserve">
<path opacity="0.1" fill="#2271FF" enable-background="new    " d="M321.21,31.27C351.99,3.84,400.32-1.73,444.301,0.43
	c138.16,6.869,262.87,73.56,370.738,149c39.052,27.31,77.502,56.739,102.852,94.35c51.6,76.57,36.3,182.63-35.46,245.701
	c-24.41,21.46-54,37.909-84.392,52.5c-54,25.93-112.31,46.739-173.619,52.67c-43.729,4.22-88,0.789-131.46-5.11
	C371.5,573.08,252.31,536.631,152.4,474.35c-43.819-27.33-85.13-61.3-103.189-105.521c-18.061-44.22-6.5-100.2,38.29-126.399
	c18.51-10.82,40.641-15.71,62.3-20.301c31.891-6.76,64.29-13.42,93.061-27.149c29.721-14.19,64.92-41.63,59-73
	C295.5,88.26,290.5,58.63,321.21,31.27z"/>
<title>press play</title>
<circle opacity="0.1" fill="#2271FF" enable-background="new    " cx="174.08" cy="129.4" r="31.5"/>
<circle opacity="0.1" fill="#2271FF" enable-background="new    " cx="108.09" cy="54.4" r="19.5"/>
<circle opacity="0.1" fill="#2271FF" enable-background="new    " cx="925.57" cy="114.4" r="12"/>
<polygon fill="#5F5D7E" points="214,487.31 213.63,507.26 210.67,668.97 185.33,728.31 98,729.31 98,496.5 189.14,489.28 "/>
<polygon opacity="0.1" enable-background="new    " points="214,487.31 213.63,507.26 210.67,668.97 185.33,728.31 98,729.31 
	98,496.5 189.14,489.28 "/>
<polygon fill="#5F5D7E" points="214,487.31 213.63,507.26 210.67,668.97 185.33,728.31 192,507.64 191.98,507.5 189.14,489.28 "/>
<polygon opacity="0.1" enable-background="new    " points="189.14,489.28 214,487.31 213.63,507.26 191.98,507.5 98,508.551 
	98,496.5 "/>
<polygon fill="#5F5D7E" points="999,496.5 999,727.97 978.67,727.97 897.33,668.64 897.33,489.97 970,483.14 974.461,485.19 
	978.67,487.131 "/>
<rect x="978.67" y="485.19" opacity="0.1" enable-background="new    " width="20.33" height="242.779"/>
<polygon opacity="0.1" enable-background="new    " points="999,485.19 999,498.5 978.67,498.73 897.33,499.631 897.33,489.97 
	970,483.14 974.461,485.19 978.67,487.131 978.67,485.19 "/>
<polygon fill="#5F5D7E" points="999,477.64 999,496.5 0,507.64 0,483.64 94,464.64 912,458.64 "/>
<polygon opacity="0.1" enable-background="new    " points="999,477.64 999,496.5 0,507.64 0,483.64 "/>
<circle fill="#E6E8EC" cx="382.18" cy="330.29" r="4.82"/>
<ellipse opacity="0.1" enable-background="new    " cx="170.24" cy="470.71" rx="45.04" ry="2.89"/>
<path fill="#2271FF" d="M208.04,359.25c-0.959,1.314-1.728,2.76-2.279,4.29c-0.141,0.381-0.28,0.801-0.421,1.21
	c-0.252-0.118-0.518-0.21-0.79-0.27c-1.166-0.292-2.371-0.396-3.569-0.311c0-0.46,0.061-1,0.069-1.46
	c0.15-5.271-0.47-12.62-5.5-9.511c-4.819,3-1.38,8,1.729,11.21l0.801,0.78c-2.841,2-3.38,6.729-3.851,11.64
	s-4.641,10.29-7.41,13.341c-0.279,0.311-0.529,0.59-0.779,0.85c-2.264-1.813-5.193-2.565-8.051-2.069
	c-0.109-0.431-0.239-0.88-0.369-1.359c-2.24-8.08-6.891-22.09-12.82-25.16l0.78-1c2.521-3.3,5.359-8.189,1.17-9.449
	c-4.189-1.261-4.569,4.25-4.34,8.369c0,0.521,0.079,1,0.119,1.46c-1.69,0.082-3.274,0.855-4.38,2.141l-0.649-0.76
	c-3.399-4-9.63-10.37-11.521-5.561c-1.76,4.479,3.729,10.29,7.59,13.659l0.24,0.21c-2.59,10.53,8.689,19.131,14.811,22.851
	l0.79,0.479c-8.399,9.9-13.591,28.45-13.591,28.45l23.521,4.2c0,0,15.601-13.45,13.601-26.091h0.16
	c15.59-3.119,19.13-19.739,16.699-29.609l0.28-0.109c2.839-1.165,5.325-3.046,7.22-5.46C221.66,360.14,212.5,353.301,208.04,359.25z
	"/>
<path opacity="0.1" enable-background="new    " d="M208.04,359.25c-0.959,1.314-1.728,2.76-2.279,4.29
	c-0.141,0.381-0.28,0.801-0.421,1.21c-0.252-0.118-0.518-0.21-0.79-0.27c-1.166-0.292-2.371-0.396-3.569-0.311
	c0-0.46,0.061-1,0.069-1.46c0.15-5.271-0.47-12.62-5.5-9.511c-4.819,3-1.38,8,1.729,11.21l0.801,0.78
	c-2.841,2-3.38,6.729-3.851,11.64s-4.641,10.29-7.41,13.341c-0.279,0.311-0.529,0.59-0.779,0.85
	c-2.264-1.813-5.193-2.565-8.051-2.069c-0.109-0.431-0.239-0.88-0.369-1.359c-2.24-8.08-6.891-22.09-12.82-25.16l0.78-1
	c2.521-3.3,5.359-8.189,1.17-9.449c-4.189-1.261-4.569,4.25-4.34,8.369c0,0.521,0.079,1,0.119,1.46
	c-1.69,0.082-3.274,0.855-4.38,2.141l-0.649-0.76c-3.399-4-9.63-10.37-11.521-5.561c-1.76,4.479,3.729,10.29,7.59,13.659l0.24,0.21
	c-2.59,10.53,8.689,19.131,14.811,22.851l0.79,0.479c-8.399,9.9-13.591,28.45-13.591,28.45l23.521,4.2
	c0,0,15.601-13.45,13.601-26.091h0.16c15.59-3.119,19.13-19.739,16.699-29.609l0.28-0.109c2.839-1.165,5.325-3.046,7.22-5.46
	C221.66,360.14,212.5,353.301,208.04,359.25z"/>
<path fill="#2271FF" d="M161.22,366.03l-2.721,8.05c0,0-1.529-1.08-3.46-2.779c-3.859-3.37-9.351-9.181-7.59-13.66
	c1.89-4.811,8.119,1.54,11.521,5.561C160.31,364.79,161.22,366.03,161.22,366.03z"/>
<path fill="#2271FF" d="M167.02,361.44c-0.837,1.097-1.73,2.147-2.681,3.149c-0.234-1.4-0.397-2.813-0.489-4.229
	c-0.229-4.12,0.21-9.591,4.34-8.37S169.5,358.14,167.02,361.44z"/>
<path fill="#2271FF" d="M202.5,362.711c-0.08,2.649-0.34,4.76-0.34,4.76c-1.211-0.941-2.356-1.964-3.431-3.061
	c-3.109-3.229-6.55-8.21-1.729-11.21C202.02,350.091,202.64,357.44,202.5,362.711z"/>
<path fill="#2271FF" d="M218.74,366.18c-1.899,2.413-4.396,4.291-7.239,5.45c-0.787,0.341-1.597,0.632-2.42,0.869l-3.24-4.55
	c0.344-1.503,0.791-2.979,1.341-4.42c0.553-1.531,1.32-2.976,2.279-4.29C213.96,353.301,223.1,360.14,218.74,366.18z"/>
<path opacity="0.1" enable-background="new    " d="M158.94,363.2c1.37,1.59,2.28,2.83,2.28,2.83l-2.721,8.05
	c0,0-1.529-1.08-3.46-2.779c0.431-2.577,1.496-5.007,3.101-7.069C158.38,363.86,158.67,363.51,158.94,363.2z"/>
<path opacity="0.1" enable-background="new    " d="M167.02,361.44c-0.837,1.097-1.73,2.147-2.681,3.149
	c-0.234-1.4-0.397-2.813-0.489-4.229C164.994,360.38,166.102,360.758,167.02,361.44z"/>
<path fill="#2271FF" d="M180.5,393.4l-6.84,3c0,0-1.49-0.721-3.641-2.061c-7.189-4.431-21.641-15.561-11.95-28.681
	c9.689-13.12,17.771,10.42,20.95,21.92C180.03,391.03,180.5,393.4,180.5,393.4z"/>
<path opacity="0.1" enable-background="new    " d="M198.72,364.41c0.991-1.028,2.341-1.639,3.77-1.699
	c-0.079,2.649-0.34,4.76-0.34,4.76C200.939,366.528,199.793,365.507,198.72,364.41z"/>
<path opacity="0.1" enable-background="new    " d="M211.5,371.631c-0.787,0.341-1.597,0.632-2.42,0.869l-3.24-4.55
	c0.344-1.503,0.791-2.979,1.341-4.42C209.29,364.77,210.83,367.801,211.5,371.631z"/>
<path fill="#2271FF" d="M194.5,401.36l-1.149,0.199c-22.931,3.49-7.561-8.88-7.561-8.88s1-0.949,2.431-2.51
	c2.771-3.051,6.93-8.4,7.409-13.341c0.721-7.43,1.551-14.399,10.32-12.35C214.6,366.49,216.25,397.01,194.5,401.36z"/>
<rect x="150.3" y="458.44" fill="#474157" width="43.811" height="11.521"/>
<rect x="143.34" y="421" fill="#474157" width="57.24" height="40.2"/>
<rect x="149.88" y="458.44" opacity="0.1" enable-background="new    " width="43.811" height="11.521"/>
<rect x="143.16" y="421.01" opacity="0.1" enable-background="new    " width="57.239" height="40.2"/>
<rect x="153.18" y="458.44" fill="#474157" width="43.81" height="11.521"/>
<path opacity="0.1" enable-background="new    " d="M179.06,387.631c1,3.439,1.479,5.811,1.479,5.811l-6.84,3
	c0,0-1.49-0.721-3.641-2.061C172.74,390.95,175.76,388.381,179.06,387.631z"/>
<path opacity="0.1" enable-background="new    " d="M194.5,401.36l-1.149,0.199c-22.931,3.49-7.561-8.88-7.561-8.88
	s1-0.949,2.431-2.51C192.5,393.631,194.31,397.461,194.5,401.36z"/>
<path fill="#2271FF" d="M157.26,423.28c0,0,12.84-46,30.85-31.8c18.011,14.199-7.33,36-7.33,36L157.26,423.28z"/>
<circle opacity="0.1" enable-background="new    " cx="163.74" cy="372.87" r="1.44"/>
<circle opacity="0.1" enable-background="new    " cx="163.62" cy="379.6" r="1.44"/>
<circle opacity="0.1" enable-background="new    " cx="205.39" cy="374.19" r="1.44"/>
<circle opacity="0.1" enable-background="new    " cx="171.78" cy="408.64" r="1.44"/>
<circle opacity="0.1" enable-background="new    " cx="202.39" cy="385.361" r="1.44"/>
<circle opacity="0.1" enable-background="new    " cx="187.51" cy="400.24" r="1.44"/>
<circle opacity="0.1" enable-background="new    " cx="168.66" cy="375.75" r="1.44"/>
<circle opacity="0.1" enable-background="new    " cx="201.43" cy="378.52" r="1.44"/>
<circle opacity="0.1" enable-background="new    " cx="196.51" cy="389.68" r="1.44"/>
<circle opacity="0.1" enable-background="new    " cx="181.38" cy="407.56" r="1.44"/>
<circle opacity="0.1" enable-background="new    " cx="178.26" cy="400.48" r="1.44"/>
<circle opacity="0.1" enable-background="new    " cx="170.82" cy="384.52" r="1.44"/>
<rect x="153.18" y="458.44" opacity="0.1" enable-background="new    " width="43.81" height="4.21"/>
<rect x="146.22" y="421" fill="#474157" width="57.239" height="40.2"/>
<circle opacity="0.1" enable-background="new    " cx="183.3" cy="414.04" r="1.44"/>
<circle opacity="0.1" enable-background="new    " cx="174.66" cy="415.84" r="1.44"/>
<path fill="#2271FF" d="M311.89,574.631c0,0,7.13,9.33-3.29,23.409c-10.42,14.08-19,26-15.561,34.761c0,0,15.739-26.16,28.55-26.521
	C334.4,605.921,325.98,590.37,311.89,574.631z"/>
<path opacity="0.1" enable-background="new    " d="M311.89,574.631c0.623,0.898,1.114,1.882,1.46,2.92
	c12.489,14.681,19.149,28.38,7.141,28.729c-11.19,0.351-24.61,20.351-27.83,25.351c0.109,0.39,0.239,0.779,0.38,1.149
	c0,0,15.739-26.16,28.55-26.521C334.4,605.9,325.98,590.37,311.89,574.631z"/>
<path fill="#FFD037" d="M325.15,586.53c0,3.28-0.37,5.939-0.819,5.939c-0.45,0-0.82-2.659-0.82-5.939s0.461-1.739,0.91-1.739
	C324.87,584.79,325.15,583.24,325.15,586.53z"/>
<path fill="#FFD037" d="M329.7,590.45c-2.881,1.569-5.391,2.521-5.61,2.12c-0.22-0.399,1.939-2,4.83-3.57c2.891-1.569,1.74-0.43,2,0
	C331.18,589.43,332.59,588.881,329.7,590.45z"/>
<path fill="#2271FF" d="M274.2,574.631c0,0-7.131,9.33,3.29,23.409c10.42,14.08,19,26,15.55,34.761c0,0-15.729-26.16-28.54-26.521
	C251.69,605.921,260.11,590.37,274.2,574.631z"/>
<path opacity="0.1" enable-background="new    " d="M274.2,574.631c-0.623,0.898-1.114,1.882-1.46,2.92
	c-12.49,14.681-19.15,28.38-7.141,28.729c11.189,0.351,24.609,20.351,27.83,25.351c-0.109,0.391-0.239,0.773-0.391,1.149
	c0,0-15.729-26.149-28.54-26.49C251.69,605.95,260.11,590.37,274.2,574.631z"/>
<path fill="#FFD037" d="M260.94,586.53c0,3.28,0.37,5.939,0.82,5.939c0.449,0,0.819-2.659,0.819-5.939s-0.46-1.739-0.91-1.739
	C261.22,584.79,260.94,583.24,260.94,586.53z"/>
<path fill="#FFD037" d="M256.39,590.45c2.88,1.569,5.39,2.521,5.609,2.12c0.221-0.399-1.939-2-4.83-3.57
	c-2.891-1.569-1.739-0.43-2,0C254.91,589.43,253.5,588.881,256.39,590.45z"/>
<ellipse opacity="0.1" fill="#2271FF" enable-background="new    " cx="293.04" cy="692.74" rx="74.601" ry="11.45"/>
<path fill="#65617D" d="M331.44,620.24l-0.359,2.91l-0.5,4.119l-0.2,1.711l-0.51,4.119l-0.21,1.721l-0.5,4.109l-5.66,46.801
	c-0.511,4.18-7.34,7.43-15.569,7.43H278.21c-8.239,0-15-3.25-15.561-7.43l-5.72-46.801l-0.5-4.109l-0.21-1.721l-0.511-4.119
	l-0.2-1.711l-0.5-4.119l-0.359-2.91c-0.29-2.359,3.399-4.359,8.07-4.359h60.659C328.03,615.881,331.73,617.881,331.44,620.24z"/>
<polygon fill="#9D9CB5" points="331.08,623.15 330.58,627.26 255.51,627.26 255.01,623.15 "/>
<polygon fill="#9D9CB5" points="330.38,628.98 329.88,633.1 256.22,633.1 255.71,628.98 "/>
<polygon fill="#9D9CB5" points="329.66,634.81 329.16,638.93 256.93,638.93 256.43,634.81 "/>
<ellipse opacity="0.1" enable-background="new    " cx="534.5" cy="470.375" rx="133.5" ry="4.25"/>
<g>
	<path fill-rule="evenodd" clip-rule="evenodd" fill="#3E444E" d="M657.819,255.34c5.441-0.585,10.365,5.01,10.359,9.981
		c-0.059,47.555-0.039,95.111-0.043,142.666c0,0.365-0.035,0.728-0.053,1.092c-0.766,0.921-1.811,1.144-2.935,1.196
		c-1.273,0.06-2.549,0.063-3.823,0.063c-86.394,0.003-172.788,0.009-259.182-0.031c-2.281-0.002-4.788,0.71-6.756-1.229
		c-0.02-20.863-0.048-41.724-0.056-62.586c-0.01-26.875,0.087-53.751-0.078-80.625c-0.033-5.384,4.979-11.151,10.399-10.525
		c0.953-0.476,1.973-0.242,2.958-0.243c82.084-0.012,164.166-0.012,246.25,0C655.845,255.099,656.865,254.867,657.819,255.34z"/>
	<path fill-rule="evenodd" clip-rule="evenodd" fill="#DADEE1" d="M395.386,409.078c0.91-0.022,1.82-0.064,2.73-0.066
		c89.078-0.002,178.157-0.002,267.236,0.002c0.909,0,1.82,0.043,2.729,0.065c0.021,4.64-0.093,9.286,0.093,13.919
		c0.286,7.082-4.553,11.657-11.852,11.671c-29.119,0.055-58.239,0.022-87.358,0.024c-1.001,0-2.001,0.018-3.002,0.028
		c-1.314,0.802-2.787,0.75-4.237,0.752c-19.997,0.025-39.994,0.025-59.991,0c-1.45-0.002-2.923,0.05-4.236-0.754
		c-29.937-0.01-59.874-0.031-89.81-0.019c-8.118,0.001-12.785-4.692-12.403-12.252C395.509,418.002,395.365,413.535,395.386,409.078
		z"/>
	<path fill-rule="evenodd" clip-rule="evenodd" fill="#CFD0D0" d="M497.498,434.719c1.272-0.622,2.642-0.575,4.004-0.575
		c20.153,0.001,40.305,0.001,60.457,0.001c1.363-0.001,2.732-0.05,4.004,0.576c-0.4,4.71,1.159,9.147,1.918,13.695
		c0.759,4.546,1.694,9.063,2.333,13.626c0.181,1.286,0.419,1.714,1.72,1.652c2.089-0.1,4.192,0.075,6.276-0.06
		c1.584-0.102,1.942,0.469,1.946,1.979c0.009,4.612,0.078,4.611-4.449,4.611c-29.762,0-59.523,0.007-89.286-0.026
		c-1.003,0-2.66,0.621-2.914-0.516c-0.403-1.804-0.152-3.783,0.02-5.67c0.049-0.534,0.943-0.329,1.463-0.336
		c1.729-0.021,3.498-0.242,5.179,0.044c2.72,0.464,3.211-1.144,3.574-3.182c1.242-6.975,2.582-13.932,3.755-20.917
		C497.764,438.033,497.511,436.356,497.498,434.719z"/>
	<path fill-rule="evenodd" clip-rule="evenodd" fill="#414551" d="M657.819,255.34c-84.056,0.001-168.111,0.001-252.167,0.001
		c0.933-0.844,2.081-0.511,3.134-0.512c81.966-0.017,163.933-0.017,245.9,0C655.739,254.83,656.887,254.492,657.819,255.34z"/>
	<path fill-rule="evenodd" clip-rule="evenodd" fill="#DBDEE1" d="M531.741,398.06c-40.454,0-80.908-0.026-121.362,0.061
		c-2.538,0.006-3.089-0.694-3.084-3.136c0.076-41.547,0.075-83.094,0.002-124.641c-0.004-2.319,0.437-3.021,2.929-3.019
		c81,0.078,161.999,0.077,242.998,0.002c2.457-0.002,2.953,0.646,2.948,3c-0.076,41.546-0.075,83.094-0.003,124.642
		c0.004,2.408-0.494,3.161-3.065,3.155C612.65,398.033,572.197,398.06,531.741,398.06z"/>
	<path fill-rule="evenodd" clip-rule="evenodd" fill="#D6D9DC" d="M531.825,265.043c-1.771-0.186-2.965-1.122-2.973-2.931
		c-0.007-1.651,1.037-2.745,2.732-2.837c1.726-0.093,2.818,0.973,2.972,2.585C534.729,263.666,533.591,264.691,531.825,265.043z"/>
	<path fill-rule="evenodd" clip-rule="evenodd" fill="#A6A8AB" d="M524.905,421.8c-0.018-3.712,3.006-6.796,6.679-6.814
		c3.727-0.019,6.871,2.968,6.938,6.591c0.07,3.767-3.111,7.021-6.841,6.997C528.013,428.55,524.922,425.461,524.905,421.8z"/>
</g>
<g>
	<g opacity="0.7">
		
			<linearGradient id="SVGID_1_" gradientUnits="userSpaceOnUse" x1="363.5295" y1="551.8044" x2="322.6226" y2="622.6574" gradientTransform="matrix(1 -0.0083 -0.0083 -1 194.852 900.3004)">
			<stop  offset="0" style="stop-color:#3858A1"/>
			<stop  offset="0.1386" style="stop-color:#355CA4"/>
			<stop  offset="0.2791" style="stop-color:#2D68AC"/>
			<stop  offset="0.4207" style="stop-color:#1F7DB9"/>
			<stop  offset="0.5621" style="stop-color:#0C99CB"/>
			<stop  offset="0.629" style="stop-color:#01A9D6"/>
			<stop  offset="1" style="stop-color:#59B8A0"/>
		</linearGradient>
		<path fill="url(#SVGID_1_)" d="M564.63,335.173c0.028,3.402-2.189,6.179-4.956,6.201l-52.723,0.435
			c-2.766,0.023-5.029-2.716-5.059-6.118l-0.417-50.418c-0.028-3.402,2.191-6.178,4.956-6.201l52.725-0.436
			c2.766-0.023,5.03,2.717,5.058,6.119L564.63,335.173z"/>
		<path fill="#FFFFFF" d="M543.696,303.931c0,0-0.085,0.02-0.237,0.055l3.45-4.584l-6.348-3.973c0.037-0.293,0.058-0.594,0.055-0.9
			c-0.024-2.183-1.132-4.121-2.854-5.401c0.996-1.7,3.065-4.259,6.609-4.508c0.568-0.041,0.998-0.545,0.956-1.126
			c-0.038-0.582-0.538-1.032-1.103-0.979c-4.535,0.32-7.09,3.515-8.29,5.607c-0.96-0.375-2.015-0.583-3.126-0.572
			c-1.11,0.01-2.161,0.237-3.112,0.631c-1.245-2.069-3.866-5.215-8.405-5.446c-0.574-0.044-1.06,0.417-1.085,1
			c-0.027,0.581,0.413,1.078,0.983,1.106c3.574,0.184,5.686,2.692,6.708,4.375c-1.697,1.312-2.769,3.275-2.745,5.461
			c0.004,0.37,0.04,0.73,0.103,1.083l-5.657,3.718l3.424,4.901c-0.223-0.045-0.352-0.074-0.352-0.074s-2.729,1.995-7.579,5.161
			c0.159,15.322,13.054,28.846,18.26,28.596c5.201-0.249,17.18-12.135,17.649-28.939
			C546.164,306.141,543.696,303.931,543.696,303.931z"/>
	</g>
	<g>
		<path fill="#3858A1" d="M484.514,367.042l-3.438,0.001l3.489-16.692l6.785-0.002c1.208,0,2.162,0.142,2.865,0.426
			c0.703,0.285,1.259,0.755,1.668,1.411c0.409,0.657,0.615,1.44,0.616,2.351c0,0.843-0.162,1.663-0.489,2.459
			c-0.327,0.798-0.727,1.435-1.201,1.913c-0.474,0.478-0.984,0.841-1.53,1.088c-0.546,0.247-1.283,0.436-2.208,0.565
			c-0.54,0.076-1.548,0.114-3.029,0.114l-2.197,0L484.514,367.042z M486.413,357.91h1.059c1.814,0,3.024-0.115,3.632-0.343
			c0.607-0.228,1.085-0.592,1.434-1.093c0.349-0.501,0.524-1.052,0.524-1.651c0-0.402-0.09-0.732-0.269-0.991
			c-0.179-0.258-0.428-0.445-0.751-0.563c-0.323-0.118-1.042-0.176-2.158-0.176l-2.46,0L486.413,357.91z"/>
		<path fill="#3858A1" d="M508.388,362.001l-8.197,0.002c-0.008,0.13-0.013,0.228-0.013,0.296c0,0.805,0.231,1.454,0.691,1.947
			c0.459,0.493,1.019,0.739,1.679,0.739c1.085,0,1.932-0.563,2.539-1.686l2.926,0.488c-0.569,1.177-1.33,2.06-2.282,2.648
			c-0.952,0.588-2.02,0.883-3.204,0.883c-1.625,0.001-2.946-0.513-3.964-1.541s-1.526-2.388-1.526-4.081
			c-0.001-1.655,0.457-3.128,1.375-4.418c1.252-1.747,3.039-2.62,5.361-2.621c1.481-0.001,2.656,0.457,3.531,1.37
			c0.872,0.915,1.31,2.195,1.31,3.843C508.615,360.66,508.539,361.371,508.388,362.001z M505.632,360.009
			c0.007-0.145,0.011-0.254,0.011-0.331c0-0.895-0.201-1.567-0.604-2.015c-0.402-0.448-0.941-0.671-1.616-0.671
			c-0.676,0-1.281,0.255-1.816,0.764c-0.535,0.509-0.897,1.261-1.086,2.255L505.632,360.009z"/>
		<path fill="#3858A1" d="M509.162,363.651l3.165-0.502c0.281,0.668,0.63,1.14,1.048,1.418c0.418,0.277,0.986,0.415,1.708,0.415
			c0.744,0,1.34-0.167,1.787-0.502c0.312-0.228,0.467-0.504,0.467-0.83c0-0.221-0.08-0.418-0.239-0.593
			c-0.167-0.166-0.618-0.372-1.355-0.614c-1.974-0.652-3.195-1.167-3.666-1.547c-0.736-0.592-1.105-1.365-1.105-2.322
			c-0.001-0.957,0.356-1.78,1.07-2.471c0.993-0.964,2.47-1.447,4.427-1.447c1.557-0.001,2.733,0.284,3.53,0.852
			c0.799,0.569,1.304,1.34,1.516,2.311l-3.018,0.525c-0.159-0.44-0.417-0.771-0.774-0.99c-0.485-0.296-1.069-0.444-1.753-0.443
			c-0.684,0-1.176,0.114-1.475,0.341c-0.3,0.228-0.449,0.49-0.449,0.787c0,0.304,0.151,0.554,0.455,0.75
			c0.19,0.122,0.801,0.334,1.834,0.637c1.594,0.462,2.66,0.917,3.199,1.365c0.759,0.63,1.139,1.39,1.139,2.276
			c0.001,1.147-0.48,2.141-1.443,2.984c-0.965,0.843-2.323,1.264-4.076,1.265c-1.746,0-3.096-0.32-4.048-0.961
			C510.152,365.714,509.505,364.813,509.162,363.651z"/>
		<path fill="#3858A1" d="M523.369,357.362l0.501-2.425h1.593l0.398-1.936l3.745-2.255l-0.876,4.19l1.992-0.001l-0.5,2.425
			l-2.004,0.001l-1.057,5.067c-0.19,0.919-0.284,1.443-0.284,1.571c0,0.25,0.08,0.446,0.238,0.586
			c0.16,0.14,0.447,0.211,0.865,0.211c0.145,0,0.505-0.028,1.081-0.081l-0.512,2.426c-0.56,0.114-1.137,0.17-1.729,0.171
			c-1.154,0-1.994-0.221-2.518-0.664c-0.523-0.444-0.785-1.061-0.785-1.851c0-0.372,0.14-1.229,0.42-2.573l1.011-4.861H523.369z"/>
		<path fill="#3858A1" d="M546.212,367.018l-3.474,0.001l-0.38-12.205l-6.075,12.207l-3.541,0.001l-0.632-16.69l3.358-0.001
			l0.152,11.681l5.723-11.683l3.723-0.001l0.392,11.556l5.496-11.558l3.324-0.001L546.212,367.018z"/>
		<path fill="#3858A1" d="M556.512,358.35l-3.188-0.271c0.365-1.079,0.999-1.921,1.907-2.529c0.905-0.607,2.107-0.912,3.603-0.912
			c1.555,0,2.705,0.313,3.45,0.938c0.744,0.626,1.117,1.39,1.117,2.293c0,0.365-0.032,0.751-0.096,1.161
			c-0.065,0.41-0.29,1.488-0.677,3.234c-0.319,1.442-0.478,2.452-0.478,3.029c0.001,0.516,0.092,1.088,0.274,1.718l-3.177,0.001
			c-0.13-0.439-0.208-0.895-0.239-1.366c-0.479,0.531-1.028,0.939-1.651,1.224c-0.622,0.285-1.247,0.428-1.877,0.428
			c-1.003,0.001-1.831-0.327-2.482-0.984c-0.654-0.656-0.98-1.5-0.98-2.533c0-1.154,0.357-2.076,1.074-2.767
			s1.998-1.109,3.842-1.254c1.557-0.13,2.597-0.286,3.12-0.468c0.137-0.456,0.204-0.82,0.204-1.093c0-0.349-0.141-0.642-0.422-0.877
			c-0.279-0.235-0.697-0.353-1.252-0.352c-0.584,0-1.046,0.12-1.384,0.359C556.864,357.571,556.634,357.911,556.512,358.35z
			 M559.621,361.378c-0.198,0.053-0.459,0.103-0.785,0.148c-1.64,0.199-2.71,0.487-3.21,0.867c-0.356,0.274-0.535,0.641-0.535,1.104
			c0.001,0.379,0.138,0.701,0.411,0.962c0.272,0.261,0.634,0.392,1.081,0.392c0.494,0,0.958-0.12,1.395-0.359
			c0.436-0.239,0.763-0.547,0.979-0.923c0.216-0.375,0.408-0.962,0.575-1.759L559.621,361.378z"/>
		<path fill="#3858A1" d="M567.212,354.919l3.052-0.001l-0.488,2.346c1.138-1.754,2.371-2.631,3.699-2.632
			c0.47,0,0.975,0.118,1.514,0.353l-1.251,2.676c-0.296-0.106-0.611-0.159-0.945-0.159c-0.561,0-1.133,0.213-1.714,0.638
			c-0.58,0.426-1.033,0.993-1.359,1.703c-0.326,0.709-0.648,1.835-0.967,3.376l-0.796,3.792l-3.268,0.001L567.212,354.919z"/>
		<path fill="#3858A1" d="M585.717,361.972l-8.197,0.003c-0.008,0.13-0.011,0.227-0.011,0.296c0,0.805,0.229,1.454,0.689,1.947
			c0.459,0.493,1.019,0.739,1.68,0.739c1.085,0,1.932-0.562,2.537-1.686l2.928,0.488c-0.569,1.177-1.33,2.06-2.283,2.648
			c-0.952,0.588-2.02,0.883-3.204,0.883c-1.625,0.001-2.946-0.514-3.963-1.541c-1.019-1.028-1.528-2.388-1.528-4.081
			c0-1.654,0.458-3.128,1.376-4.419c1.253-1.746,3.038-2.62,5.361-2.62c1.48,0,2.657,0.457,3.531,1.37
			c0.874,0.915,1.31,2.195,1.311,3.842C585.946,360.632,585.868,361.342,585.717,361.972z M582.961,359.98
			c0.008-0.144,0.012-0.254,0.012-0.33c0-0.895-0.202-1.567-0.604-2.015s-0.941-0.671-1.617-0.671c-0.675,0-1.28,0.254-1.815,0.764
			c-0.535,0.509-0.897,1.261-1.087,2.254L582.961,359.98z"/>
	</g>
	<g>
		<path fill="#3858A1" d="M526.719,380.293l-3.967,0.136l-1.125,2.254l-2.116,0.071l5.315-10.203l2.287-0.078l1.97,9.952
			l-1.952,0.067L526.719,380.293z M526.41,378.635l-0.719-4.008l-2.278,4.111L526.41,378.635z"/>
		<path fill="#3858A1" d="M531.531,375.083l1.857-0.064l-0.132,0.749c0.385-0.34,0.748-0.587,1.089-0.741
			c0.34-0.153,0.71-0.237,1.105-0.25c0.76-0.027,1.38,0.214,1.86,0.722c0.479,0.507,0.736,1.28,0.772,2.318
			c0.045,1.306-0.314,2.424-1.081,3.352c-0.656,0.792-1.45,1.204-2.384,1.236c-0.96,0.033-1.699-0.331-2.219-1.093l-0.655,3.788
			l-1.96,0.068L531.531,375.083z M532.855,379.199c0.02,0.565,0.173,0.999,0.458,1.301c0.286,0.302,0.615,0.447,0.988,0.434
			c0.324-0.011,0.632-0.139,0.924-0.383c0.293-0.245,0.528-0.643,0.707-1.193c0.181-0.551,0.262-1.059,0.245-1.523
			c-0.019-0.542-0.162-0.953-0.433-1.233c-0.269-0.279-0.604-0.413-1.004-0.399c-0.373,0.013-0.709,0.158-1.007,0.435
			c-0.298,0.277-0.522,0.676-0.673,1.199C532.909,378.359,532.841,378.814,532.855,379.199z"/>
		<path fill="#3858A1" d="M540.071,374.789l1.856-0.063l-0.13,0.749c0.384-0.341,0.746-0.588,1.089-0.742
			c0.34-0.153,0.709-0.237,1.104-0.25c0.76-0.027,1.381,0.214,1.86,0.722c0.479,0.507,0.738,1.28,0.772,2.317
			c0.045,1.306-0.315,2.424-1.08,3.352c-0.656,0.793-1.451,1.205-2.385,1.237c-0.96,0.033-1.699-0.332-2.217-1.093l-0.657,3.788
			l-1.959,0.068L540.071,374.789z M541.396,378.906c0.019,0.565,0.171,0.999,0.457,1.301c0.286,0.303,0.616,0.447,0.988,0.434
			c0.323-0.011,0.632-0.139,0.924-0.383c0.292-0.245,0.529-0.643,0.707-1.193c0.18-0.551,0.261-1.059,0.246-1.522
			c-0.019-0.542-0.163-0.953-0.432-1.233c-0.27-0.28-0.605-0.413-1.007-0.398c-0.372,0.012-0.708,0.157-1.006,0.434
			c-0.299,0.277-0.522,0.676-0.673,1.198C541.45,378.065,541.382,378.52,541.396,378.906z"/>
	</g>
</g>
<g>
	<ellipse opacity="0.1" fill="#2271FF" enable-background="new    " cx="689.921" cy="788.85" rx="84.238" ry="8.4"/>
	<circle fill="#E6E8EC" cx="700.81" cy="330.81" r="7.95"/>
	
		<linearGradient id="SVGID_2_" gradientUnits="userSpaceOnUse" x1="438.4724" y1="645.7449" x2="438.4724" y2="129.5798" gradientTransform="matrix(1 0 0 1 239.7402 148.2852)">
		<stop  offset="0" style="stop-color:#808080;stop-opacity:0.25"/>
		<stop  offset="0.54" style="stop-color:#808080;stop-opacity:0.12"/>
		<stop  offset="1" style="stop-color:#808080;stop-opacity:0.1"/>
	</linearGradient>
	<path fill="url(#SVGID_2_)" d="M803.881,509.14c-0.2-1.223-0.581-2.409-1.131-3.521c0.761-2.59,1.25-4.18,1.25-4.18
		s0-0.381-0.119-1c-1.233-7.578-7.875-13.08-15.552-12.881c-6,0.11-17.38,0.511-30,1.931c0.722-5.05,1.58-11.09,2.48-17.311
		l1.649,0.181c0.381,0,0.779,0,1.181,0.061h0.53c1.314,0.082,2.614-0.315,3.658-1.12c0.855-0.832,0.875-2.199,0.043-3.055
		c-0.202-0.209-0.444-0.374-0.713-0.485c2.997,0.299,5.941-0.936,7.83-3.279c1.74-2.435,1.74-5.706,0-8.141
		c-2.108-3-6.58-5-6.818-8.53c-0.131-2,1.21-3.8,2.26-5.569c5.201-9.082,3.699-20.519-3.67-27.949
		c-1.407-1.396-2.891-2.716-4.44-3.95c-2.2-8.08-4.5-15.3-5.18-15.53c-0.88-0.29-2.39-2.189-3.83-3.819
		c0.132-1.375,0.108-2.761-0.07-4.13c-1.06-7-8-12-11.818-18.181c-3.82-6.18-4.512-13.75-3.53-20.83
		c0.979-7.08,3.45-13.93,5.46-20.84c1.5-5.13,2.75-10.58,1.07-15.67c-1.19-3.63-3.78-6.771-6.45-9.721
		c-6.41-7.09-13.8-13.729-22.92-18c-6.34-2.988-13.283-4.474-20.29-4.34h-0.07l-1.1,0.06l-0.78,0.051l-0.78,0.08l-0.83,0.079l0,0
		c-0.85,0.11-1.688,0.24-2.528,0.41c-6.093-1.354-12.312-2.052-18.552-2.08h-0.81c-1.852-0.108-3.693,0.325-5.3,1.25
		c-2.22,1.551-2.5,4.33-3.17,6.75c-1.204,4.051-3.741,7.574-7.2,10c-2.391,1.721-5.2,3.001-7.48,4.801
		c-2.278,1.8-4.06,4.5-3.448,7.16c0.51,2.229,2.59,3.89,5,4.899c-0.29,0.359-0.592,0.71-0.87,1.08c0.47,0.189,1,0.359,1.43,0.5
		c3,0.891,6.229,1,9.271,1.811c0.836,0.224,1.657,0.501,2.46,0.83c-2.704,5.086-4.116,10.76-4.11,16.52
		c0.023,13.031,7.166,25.007,18.62,31.221c0,0.34,0,0.67,0,1c0.31,10.439-0.48,23.141-5.82,25.29s-10.45,4.58-13.6,6.149l-1,0.53
		c-0.83-0.381-1.66-0.78-2.47-1.2c0,0-4.25-0.5-3.512,2.739c0,0-12.85-2-19.898,3.49c-7.051,5.489-18.62,16.949-20.892,19.939
		c-2.27,2.99-19.819,9.529-19.819,9.529s5.529-7.729,3.141-17.199c0,0-2.641-11.42-1.38-16c1.26-4.58,4.53-21.58,4.53-21.58
		s0.46-17.939-9.33-26.17c-9.79-8.229-16.602-15-12.82-7c1.652,3.668,3.501,7.243,5.54,10.71c0,0-23.41,5.561-15.101,14.239
		c8.311,8.681,10.569,8.69,10.569,8.69s-2.77,21.43-3.28,25.42c-0.51,3.989-5,34.39-5,34.39s-0.25,14.461,2.271,16.7
		c0,0,1.65,9.311,12.08,9c0,0,19.88-0.5,25.42-2.739c5.54-2.24,24.66-14.21,26.68-13.46c0.146,0.059,0.279,0.146,0.392,0.26
		c0.106,0.093,0.207,0.192,0.3,0.301c-2,4.43-6.74,19.47-4.72,26.859c0,0-1.762,20.93,8.81,27.659c0,0,15.35,25.921,9.561,39.87
		c-0.461,1.13-0.869,2.17-1.25,3.181c-8.79-7.29-22.199-14-42.681-17.71c-2.09-0.38-4.17-0.841-6.229-1.341
		c-5.82-1.409-21.83-2.699-29.45,22.61c-1.777,5.883-4.038,11.609-6.76,17.119c-3,6.07-6.33,14.771-6.4,23.4
		c-0.17,12.1,6.08,24.09,28.76,28.489c0.25,9,1.28,19.721,4.36,27.431c6.29,15.699,16.358,41.12,16.358,41.12
		s12.08,25.92,12.842,36.38c0.488,6.851,1.21,15.83,0.71,22c0,0.38-0.062,0.739-0.102,1.101c-1.036,1.118-2.167,2.146-3.38,3.069
		c-1.76,1-7.55,7.229-7.55,8.72c0.012,1.429,0.14,2.853,0.38,4.261c-2.74,2.391-4.24,5-4.24,7.601
		c0,13.521,38.37,24.479,85.7,24.479s85.69-11,85.69-24.479c0-12.341-32-22.54-73.58-24.221c8.67-3.46,16.37-7.09,19.56-10
		c0.686-0.533,1.208-1.247,1.511-2.061l-8.051-18.689c0,0-0.63,0.141-1.56,0.41l-0.562-0.841c-3.58-5.449-10.47-16.31-10.47-19.26
		c0-1.091-1.819-8.061-4.46-17.609v-30.65c26.26,4,60.1-1.438,60.1-1.438l0.15-0.08h0.66v-0.36c4.55-2.52,27.31-15.85,34.06-33.529
		c2-5.16-0.488-12.551-5.438-20.45c3.46-8.59,12-30.779,11.148-39.63c0-0.471-0.06-1-0.06-1.521c0.08-0.904,0.114-1.813,0.1-2.72
		c1-13,9-36.75,9-36.75S803.98,509.74,803.881,509.14z M633.881,451.381c1.818,3.199,3.77,7.29,4.54,8.949l0,0
		c0,0-2.66-4.899-4.49-8.949H633.881z M635.78,731.48l-0.188,0.069v-1c-0.109-2.607-0.046-5.221,0.188-7.819
		c0.028-1.401-0.267-2.791-0.858-4.061c-3.082-7.743-5.145-15.854-6.13-24.131c-1-8.72-1.83-18.229-1.312-20.649
		c0.78-3.71,1.42-31.811,0.45-45.659l15.479,3.479l18,36.7c0,0,11.58,17.92,15.17,32.061v14.16c-1.05,4.219-2.885,8.2-5.408,11.739
		c-2.392,3.271-4.722,6.58-6.881,10c-0.659,1.061-1.391,2.149-2.119,3.17c-0.24,0-12.07,0.69-14.08,2.91
		c-1.24,1.37-3.4,3.53-3.762,5.7l-0.51,0.08c-2.32-6.91-7.99-16.75-7.99-16.75L635.78,731.48L635.78,731.48z"/>
	<path opacity="0.1" enable-background="new    " d="M711.93,718.631l-4,13l-17,14.75l-25,7.18c0,0-11.75-6.43-7.75-7.68
		c1.108-0.351,2.43-1.62,3.77-3.28c-1.398,5.101,9.73-1.47,9.73-1.47s28.75-20.5,31.75-22.75c1.967-1.306,4.127-2.293,6.398-2.931
		C711.079,717.4,711.93,718.631,711.93,718.631z"/>
	<path fill="#FDC2CC" d="M711.93,718.631l-4,13l-17,14.75l-25,7.18c0,0-11.75-6.43-7.75-7.68c1.108-0.351,2.43-1.62,3.77-3.28
		c1.207-1.539,2.322-3.149,3.342-4.819c2.14-3.439,4.46-6.761,6.828-10c3.458-4.923,5.628-10.634,6.312-16.609
		c1.75-13.75-16-41.5-16-41.5l-32.25-66.25l45,5.5c0,0,24.25,83.25,24.25,87.25c0,3,6.84,13.85,10.398,19.319
		C711.079,717.4,711.93,718.631,711.93,718.631z"/>
	<ellipse fill="#5F5D7E" cx="686.97" cy="771.05" rx="85.12" ry="24.55"/>
	<path fill="#2271FF" d="M719.93,734.631c-0.305,0.813-0.822,1.527-1.5,2.069c-6.182,5.67-29.29,14.101-43.57,18.681
		c-3.743,1.307-7.56,2.392-11.43,3.25c-3.5,0.25-10.75-2-15.75-5.07c-5-3.069-0.5-7.43,1.52-9.68c2.021-2.25,14-2.92,14-2.92
		c-5.75,9.569,8.49,1.17,8.49,1.17s28.75-20.5,31.75-22.75s8.5-3.5,8.5-3.5L719.93,734.631z"/>
	<path opacity="0.3" enable-background="new    " d="M719.93,734.631c-0.305,0.813-0.822,1.527-1.5,2.069
		c-6.182,5.67-29.29,14.101-43.57,18.681c-3.743,1.307-7.56,2.392-11.43,3.25c-3.5,0.25-10.75-2-15.75-5.07
		c-5-3.069-0.5-7.43,1.52-9.68c2.021-2.25,14-2.92,14-2.92c-5.75,9.569,8.49,1.17,8.49,1.17s28.75-20.5,31.75-22.75s8.5-3.5,8.5-3.5
		L719.93,734.631z"/>
	<path opacity="0.1" enable-background="new    " d="M718.43,736.72c-6.182,5.67-29.29,14.101-43.57,18.681
		C687.801,744.44,709.5,738.711,718.43,736.72z"/>
	<ellipse opacity="0.1" enable-background="new    " cx="686.97" cy="763.14" rx="17.028" ry="4.91"/>
	<rect x="677.5" y="633.64" fill="#5F5D7E" width="17.5" height="129.5"/>
	<path opacity="0.1" enable-background="new    " d="M695,640.06v15c-3.5-1.079-11.489-5.63-17.5-9.21v-12.22h3.649L695,640.06z"/>
	<path fill="#474157" d="M653.77,577.26c0,0,57.78-14.87,72.16-26s70.85,41.239,63.39,61c-7.46,19.76-34.62,34.069-34.62,34.069
		s-75.108,12.221-87.898-13.271C654.01,607.57,653.77,577.26,653.77,577.26z"/>
	<path opacity="0.1" enable-background="new    " d="M653.77,577.26c0,0,57.78-14.87,72.16-26s70.85,41.239,63.39,61
		c-7.46,19.76-34.62,34.069-34.62,34.069s-75.108,12.221-87.898-13.271C654.01,607.57,653.77,577.26,653.77,577.26z"/>
	<path fill="#474157" d="M648.77,571.26c0,0,57.78-14.87,72.16-26s70.85,41.239,63.39,61c-7.46,19.76-34.62,34.069-34.62,34.069
		s-75.108,12.221-87.898-13.271C649.01,601.57,648.77,571.26,648.77,571.26z"/>
	<path fill="#FDC2CC" d="M746.18,388.9v14l-14.5,4.729l-24.7,18.18l-6.55,4.82l-29.25-11.75l-18.5-19.5c0,0,0.898-0.49,2.46-1.301
		l1-0.529c3.13-1.569,8.06-4,13.51-6.17c5.45-2.171,6.09-14.891,5.78-25.37v-1c-0.25-7.351-1-13.359-1-13.359s3.05-0.58,7.49-1.24
		c12.31-1.83,35.278-4.3,33.26,3.24c-0.59,2.563-0.59,5.228,0,7.79c0.06,0.279,0.12,0.569,0.188,0.85
		c2.08,9.091,8.521,18.61,8.521,18.61l20,7.199l0.56,0.2L746.18,388.9z"/>
	<path fill="#FDC2CC" d="M746.18,393.15v-4.25c1.57-0.271,3.178-0.271,4.75,0c1.75,0.5,5.068,5.75,6.568,6.25
		s10.682,34.75,9.682,37.75s-10.45,70.729-10.45,70.729l-19.05,21l-3.75-57.75l12.25-34.25V393.15L746.18,393.15z"/>
	<path fill="#FDC2CC" d="M647.43,550.4c0,0-17.41,3.75-15.2,9.25s11.95,5.75,11.95,5.75L647.43,550.4z"/>
	<path fill="#FDC2CC" d="M671.68,439.35l-13.25,28.55l-15.75,11.5l-2.75-17.771c0,0-5.32-11.75-7.61-13.74
		c-0.109-0.112-0.243-0.2-0.39-0.26c-2-0.75-21,11.25-26.5,13.5s-25.25,2.75-25.25,2.75l8.75-31.25c0,0,17.5-6.5,19.75-9.5
		s13.75-14.5,20.75-20s19.77-3.5,19.77-3.5l0.2,0.079l3.28,1.421l9.5,23.25L671.68,439.35z"/>
	<path fill="#FDC2CC" d="M636.93,724.15c-0.235,2.605-0.299,5.225-0.19,7.84c0.07,2.79,0.19,5.16,0.19,5.16l-5.75,12
		c0,0-19.75,6.5-16.5,3.75c1.13-0.95,1.71-3.42,2-6.689c0.49-6.181-0.22-15.19-0.71-22.061c-0.75-10.5-12.75-36.5-12.75-36.5
		s-10-25.5-16.25-41.25s-4-44.25-4-44.25s1-21.5,5.5-28s22-8.75,22-8.75l8.21,27.229c0,0,6.75,25.5,9.25,29.25s1.75,48.5,0.75,53.25
		c-0.51,2.43,0.35,12,1.31,20.72c0.98,8.295,3.023,16.428,6.08,24.2C636.666,721.334,636.962,722.735,636.93,724.15z"/>
	<path opacity="0.1" enable-background="new    " d="M636.93,737.15l-5.75,12c0,0-19.75,6.5-16.5,3.75c1.13-0.95,1.71-3.42,2-6.689
		c0.71-0.711,1.47-1.49,2.25-2.29c5.024-5.21,11.113-9.279,17.85-11.931l0,0C636.81,734.78,636.93,737.15,636.93,737.15z"/>
	<path fill="#2271FF" d="M645.949,755.01c0.006,0.047,0.006,0.094,0,0.141c-1,4.75-17.5,11.25-17.5,11.25s-10.5,1.75-16.5,3.25
		c-0.459,0.123-0.936,0.167-1.408,0.13c-4.632-0.351-4.842-9.261-4.842-10.63c0-1.37,5.75-7.75,7.5-8.75
		c1.979-1.642,3.837-3.423,5.562-5.33c5.132-5.313,11.345-9.465,18.22-12.17l0,0C636.98,732.9,646.75,750.08,645.949,755.01z"/>
	<path opacity="0.3" enable-background="new    " d="M645.949,755.01c0.006,0.047,0.006,0.094,0,0.141
		c-1,4.75-17.5,11.25-17.5,11.25s-10.5,1.75-16.5,3.25c-0.459,0.123-0.936,0.167-1.408,0.13c-4.632-0.351-4.842-9.261-4.842-10.63
		c0-1.37,5.75-7.75,7.5-8.75c2.012-1.662,3.896-3.471,5.642-5.41c5.022-5.234,11.113-9.328,17.858-12l0.28-0.109
		C636.98,732.881,646.75,750.08,645.949,755.01z"/>
	<path opacity="0.1" enable-background="new    " d="M645.949,755.01c0.006,0.047,0.006,0.094,0,0.141
		c-1,4.75-17.5,11.25-17.5,11.25s-10.5,1.75-16.5,3.25c-0.459,0.123-0.936,0.167-1.408,0.13c5.438-3.729,18.63-12.681,20.408-12.88
		C632.73,756.7,641.5,754.18,645.949,755.01z"/>
	<path opacity="0.1" enable-background="new    " d="M715.409,362.29c-6.18,5.091-11.858,4.36-20.488,4.36
		c-6.24,0-14.352,2.189-19.46-0.62c-0.212-7.811-1-14.38-1-14.38s43.5-8.25,40.75,2C714.581,356.505,714.65,359.469,715.409,362.29z
		"/>
	<path fill="#FDC2CC" d="M728.43,333.69c0,19.744-16.006,35.75-35.75,35.75l0,0c-0.92,0-1.84,0-2.74-0.101l0,0
		c-19.686-1.52-34.413-18.708-32.894-38.395c1.519-19.687,18.708-34.413,38.394-32.895c18.62,1.437,32.997,16.963,33,35.639
		L728.43,333.69L728.43,333.69z"/>
	<path opacity="0.1" enable-background="new    " d="M662.18,424.4l9.5,15l-13.25,28.55l-15.75,11.5l-2.75-17.819
		c0,0-5.32-11.75-7.61-13.74c0.66-1.609,1.11-2.351,1.11-1.76c0,2.5,6.148,13.75,6.148,13.75c19-6.5,13.102-31.75,13.102-31.75
		s-2.36-22.5-3.28-28.42l3.28,1.42L662.18,424.4z"/>
	<path opacity="0.1" enable-background="new    " d="M746.18,388.9v14l-14.5,4.729l-24.7,18.18l-6.55,4.82l-29.25-11.75l-18.5-19.5
		c0,0,0.898-0.49,2.46-1.301l1-0.529c12.87,5.851,26.8,8,36.75,8.771c4.576,0.389,9.171,0.491,13.76,0.311
		c37.67-6,38.79-15.101,37.851-18.33L746.18,388.9z"/>
	<path fill="#2271FF" d="M756.93,615.631c-9.43,4.624-19.111,8.713-29,12.25c-17.25,6.25-55.25-2-60-3.25s-41.25-15.75-55.25-21.25
		s-17.5-1-20.75-1.5s-5.5-6.75-6-8.5s9-17,14.25-24.75s21-6.25,23.25-6.75s18,0,18,0s-1-5,4.75-19s-9.5-40-9.5-40
		c-10.5-6.75-8.75-27.75-8.75-27.75c-2.5-9.25,5.5-30.5,5.5-28s6.148,13.75,6.148,13.75c19-6.5,13.102-31.75,13.102-31.75
		s-2.75-26.25-3.48-29.5c-0.729-3.25,3.48-2.75,3.48-2.75c0.813,0.42,1.633,0.819,2.46,1.199c13.16,6.2,27.56,8.46,37.78,9.24
		c4.574,0.389,9.171,0.491,13.76,0.311c45.67-7.37,37.58-19.12,37.28-19.54l2.22,0.79c16.5,12,11.5,51.75,11.5,51.75l-6.18,29.67
		l-4.591,22.101c0,0,16.25,98.5,17.75,103.5S756.93,615.631,756.93,615.631z"/>
	<path opacity="0.1" enable-background="new    " d="M635.18,570.631c-1,0.75-12.25,24-4,30.5S635.18,570.631,635.18,570.631z"/>
	<path opacity="0.1" enable-background="new    " d="M643.18,573.9c0.25,0.75,23.5,37.75,36.25,40.75L643.18,573.9z"/>
	<path opacity="0.1" enable-background="new    " d="M699.19,281.11l-3.72,0.79c1.024-0.378,2.074-0.688,3.14-0.93L699.19,281.11z"
		/>
	<path opacity="0.1" enable-background="new    " d="M755.211,440.631l-7,29.649c-3.572-1.629-6.854-3.828-9.722-6.511
		c-2.229-2.119-4.229-4.55-7.1-5.939c-3.69-1.79-8.14-1.55-12.33-1.699c-5.234-0.195-10.419-1.083-15.42-2.641
		c-1.453-0.363-2.814-1.024-4-1.939c-2.38-2.101-2.22-5.49-2-8.45c0.435-5.753,0.485-11.529,0.149-17.29
		c-0.061-1.079-0.141-2.159-0.229-3.239c-0.4-4.83-1.7-10.431-6.64-12.5c-2.54-1-5.57-0.92-8-2.13c-0.353-0.177-0.688-0.385-1-0.62
		c-3.602-2.521-3.932-7.57-3.79-11.82c0.213-5.84,0.416-11.684,0.608-17.529c0.184-2.883,0.119-5.777-0.188-8.649l0,0
		c-0.241-1.908-0.768-3.769-1.562-5.521c-2.17-4.641-6.688-8.511-7.5-13.41c-0.044-0.229-0.073-0.458-0.09-0.689
		c-0.42-4.38,2.34-8.46,3.312-12.771c1.938-8.67-4.58-18.17-14.171-20.66c-3-0.779-6.221-0.93-9.211-1.819
		c-0.478-0.143-0.947-0.31-1.408-0.5c7.238-9.66,19.648-16,33.738-16c22.33,0,40.44,16,40.44,35.75c0,11.2-5.83,21.189-14.94,27.75
		c0.062,0.28,0.131,0.569,0.211,0.851c2.351,9.09,9.641,18.609,9.641,18.609l22.64,7.2l2.521,0.8
		C760.869,400.9,755.211,440.631,755.211,440.631z"/>
	<path opacity="0.1" enable-background="new    " d="M767.5,469.35c-0.221,0-0.431-0.05-0.641-0.09
		C767.077,469.237,767.298,469.268,767.5,469.35z"/>
	<path fill="#474157" d="M690.18,280.12c-6.257-1.454-12.657-2.202-19.08-2.229c-2.09,0-4.33,0.109-6,1.26
		c-2.21,1.55-2.49,4.35-3.15,6.77c-1.192,4.041-3.712,7.563-7.148,10c-2.37,1.73-5.16,3.001-7.432,4.82
		c-2.27,1.819-4,4.521-3.43,7.181c0.57,2.659,3.56,4.71,6.56,5.561c3,0.85,6.19,1,9.212,1.819c9.59,2.489,16.1,12,14.158,20.649
		c-1,4.311-3.729,8.391-3.31,12.771c0.49,5.229,5.32,9.261,7.59,14.109c2.07,4.42,1.93,9.381,1.771,14.16l-0.61,17.54
		c-0.16,4.62,0.24,10.181,4.8,12.439c2.44,1.2,5.48,1.069,8,2.13c4.94,2.061,6.24,7.67,6.642,12.49
		c0.57,6.83,0.598,13.694,0.078,20.529c-0.229,3-0.39,6.351,2,8.45c1.185,0.919,2.547,1.58,4,1.939
		c5.001,1.557,10.188,2.444,15.422,2.641c4.198,0.159,8.64-0.08,12.328,1.699c2.87,1.391,4.87,3.83,7.102,5.939
		c6.394,5.852,14.544,9.419,23.18,10.15c1.852,0.159,3.95,0.12,5.24-1.07c1.29-1.189,0.53-3.76-1.311-3.609
		c3.184,0.534,6.405-0.697,8.42-3.221c1.725-2.449,1.725-5.72,0-8.17c-2.091-3-6.529-5-6.771-8.56c-0.13-2,1.2-3.812,2.24-5.591
		c5.149-9.104,3.667-20.517-3.642-28c-4.688-4.851-11.72-8.529-13.358-14.75c-1.09-4.159,0.56-8.529-0.07-12.761
		c-1-7-7.93-12-11.74-18.239c-3.81-6.239-4.479-13.79-3.51-20.891c0.969-7.1,3.43-14,5.43-20.899
		c1.49-5.149,2.722-10.619,1.062-15.729c-1.19-3.63-3.75-6.78-6.41-9.75c-6.37-7.11-13.7-13.77-22.76-18
		c-9.062-4.23-20.102-5.87-29.721-2.74"/>
	<path opacity="0.1" enable-background="new    " d="M690.18,280.12c-6.257-1.454-12.657-2.202-19.08-2.229
		c-2.09,0-4.33,0.109-6,1.26c-2.21,1.55-2.49,4.35-3.15,6.77c-1.192,4.041-3.712,7.563-7.148,10c-2.37,1.73-5.16,3.001-7.432,4.82
		c-2.27,1.819-4,4.521-3.43,7.181c0.57,2.659,3.56,4.71,6.56,5.561c3,0.85,6.19,1,9.212,1.819c9.59,2.489,16.1,12,14.158,20.649
		c-1,4.311-3.729,8.391-3.31,12.771c0.49,5.229,5.32,9.261,7.59,14.109c2.07,4.42,1.93,9.381,1.771,14.16l-0.61,17.54
		c-0.16,4.62,0.24,10.181,4.8,12.439c2.44,1.2,5.48,1.069,8,2.13c4.94,2.061,6.24,7.67,6.642,12.49
		c0.57,6.83,0.598,13.694,0.078,20.529c-0.229,3-0.39,6.351,2,8.45c1.185,0.919,2.547,1.58,4,1.939
		c5.001,1.557,10.188,2.444,15.422,2.641c4.198,0.159,8.64-0.08,12.328,1.699c2.87,1.391,4.87,3.83,7.102,5.939
		c6.394,5.852,14.544,9.419,23.18,10.15c1.852,0.159,3.95,0.12,5.24-1.07c1.29-1.189,0.53-3.76-1.311-3.609
		c3.184,0.534,6.405-0.697,8.42-3.221c1.725-2.449,1.725-5.72,0-8.17c-2.091-3-6.529-5-6.771-8.56c-0.13-2,1.2-3.812,2.24-5.591
		c5.149-9.104,3.667-20.517-3.642-28c-4.688-4.851-11.72-8.529-13.358-14.75c-1.09-4.159,0.56-8.529-0.07-12.761
		c-1-7-7.93-12-11.74-18.239c-3.81-6.239-4.479-13.79-3.51-20.891c0.969-7.1,3.43-14,5.43-20.899
		c1.49-5.149,2.722-10.619,1.062-15.729c-1.19-3.63-3.75-6.78-6.41-9.75c-6.37-7.11-13.7-13.77-22.76-18
		c-9.062-4.23-20.102-5.87-29.721-2.74"/>
	<path opacity="0.1" enable-background="new    " d="M636.68,502.9c0,0,8.5,3.25,17.5-5.75S636.68,502.9,636.68,502.9z"/>
	<g opacity="0.1">
		<path d="M693.94,279.97c1.649-0.328,3.32-0.539,5-0.631c-2.335-0.143-4.679-0.068-7,0.221L693.94,279.97z"/>
		<path d="M744.079,462.79c-2.238-2.109-4.229-4.55-7.108-5.939c-3.68-1.779-8.13-1.54-12.33-1.699
			c-5.234-0.191-10.42-1.08-15.42-2.641c-1.454-0.359-2.817-1.021-4-1.939c-2.38-2.101-2.21-5.479-2-8.45
			c0.519-6.835,0.491-13.699-0.08-20.529c-0.41-4.82-1.7-10.431-6.65-12.49c-2.528-1.061-5.56-0.93-8-2.13
			c-4.56-2.26-5-7.819-4.81-12.439c0.206-5.847,0.41-11.689,0.608-17.529c0.172-4.79,0.302-9.75-1.77-14.171
			c-2.271-4.851-7.1-8.869-7.59-14.109c-0.41-4.37,2.35-8.46,3.318-12.771c1.94-8.67-4.58-18.159-14.17-20.649
			c-3-0.78-6.22-0.939-9.21-1.82c-2.989-0.88-5.89-2.779-6.51-5.5c-0.62-2.72,1.15-5.359,3.42-7.188
			c2.271-1.83,5.062-3.091,7.44-4.82c3.438-2.435,5.953-5.958,7.14-10c0.67-2.42,1-5.21,3.15-6.771c1.231-0.765,2.648-1.179,4.1-1.2
			c-0.89,0-1.78-0.05-2.66-0.05c-2.09,0-4.33,0.11-6,1.25c-2.21,1.561-2.489,4.351-3.148,6.771c-1.194,4.042-3.714,7.563-7.15,10
			c-2.37,1.729-5.16,3-7.43,4.82c-2.271,1.819-4,4.52-3.432,7.188c0.57,2.671,3.53,4.61,6.521,5.5c2.99,0.891,6.188,1,9.21,1.82
			c9.59,2.49,16.1,12,14.16,20.649c-1,4.311-3.73,8.399-3.312,12.771c0.49,5.24,5.32,9.26,7.591,14.109
			c2.069,4.421,1.939,9.381,1.771,14.171c-0.207,5.84-0.41,11.684-0.61,17.529c-0.158,4.62,0.24,10.181,4.802,12.439
			c2.438,1.2,5.479,1.069,8,2.13c4.938,2.061,6.238,7.67,6.64,12.49c0.571,6.83,0.599,13.694,0.08,20.529
			c-0.23,3-0.391,6.351,2,8.45c1.183,0.919,2.546,1.58,4,1.939c5,1.562,10.186,2.449,15.42,2.641c4.2,0.159,8.64-0.08,12.33,1.699
			c2.87,1.391,4.87,3.83,7.109,5.939c6.389,5.853,14.536,9.423,23.171,10.15c1.115,0.133,2.247,0.089,3.35-0.131
			C757.834,471.865,750.155,468.358,744.079,462.79z"/>
	</g>
	<path opacity="0.1" enable-background="new    " d="M588.93,432.631c0,0-8,7.34-6.83,10.34S588.93,432.631,588.93,432.631z"/>
	<path fill="#474157" d="M596.35,526.98c-5.771-1.41-21.68-2.711-29.25,22.68c-1.763,5.897-4.007,11.641-6.71,17.17
		c-7.26,14.91-16.642,45.57,24.608,52.32l99,22.5c0,0,53,6.5,56.5,4s3-8,3-8s-58.5,0-70-18s-12-42.5-12-42.5s1.44-37.83-59-48.82
		C600.5,527.95,598.4,527.48,596.35,526.98z"/>
	<path opacity="0.1" enable-background="new    " d="M596.35,527.15c-5.771-1.41-21.68-2.71-29.25,22.689
		c-1.763,5.896-4.007,11.641-6.71,17.17c-7.26,14.899-16.642,45.561,24.608,52.311l99,22.5c0,0,53,6.5,56.5,4s3-8,3-8s-58.5,0-70-18
		s-12-42.5-12-42.5s1.44-37.83-59-48.82C600.5,528.12,598.4,527.631,596.35,527.15z"/>
	<path fill="#474157" d="M803.881,501.11c-1.187-7.569-7.791-13.093-15.45-12.92c-14.24,0.26-58.07,2.159-78.431,15.46
		c0,0-15.5,10-20,10s-65.5,52,25,98.5c0,0,48.5,13.8,67.5-18.601c0,0,13.5-34.801,12.5-46.851s9-44.55,9-44.55
		S803.98,501.76,803.881,501.11z"/>
	<path opacity="0.1" enable-background="new    " d="M803.881,509.87c-1.142-7-7.802-12.061-15.45-11.93
		c-14.24,0.239-58.07,2-78.431,14.271c0,0-15.5,9.229-20,9.229s-65.5,48,25,90.93c0,0,48.5,12.74,67.5-17.17
		c0,0,13.5-32.13,12.5-43.25s9-41.12,9-41.12S803.98,510.47,803.881,509.87z"/>
	<rect x="739.5" y="612.14" fill="#5F5D7E" width="16" height="34.07"/>
	<path fill="#FDC2CC" d="M595.18,434.9l-6.25-2.271c0,0,5.5-7.75,3.13-17.25c0,0-2.63-11.46-1.38-16.101s4.5-21.649,4.5-21.649
		s0.46-18-9.271-26.25c-9.729-8.25-16.479-15-12.729-7c1.638,3.681,3.474,7.269,5.5,10.75c0,0-23.25,5.569-15,14.29
		c8.25,8.72,10.5,8.71,10.5,8.71s-2.75,21.5-3.25,25.5s-5,34.5-5,34.5s-0.25,14.5,2.25,16.75c1.148,5.603,6.3,9.466,12,9
		C581.961,463.85,603.18,440.4,595.18,434.9z"/>
</g>
</svg>
